Security	NOUN	B-noun.state
increased	VERB	B-verb.change
in	ADP	O
Mumbai	NOUN	B-noun.location
amid	ADP	O
terror	NOUN	B-noun.state
threats	NOUN	I-noun.state
ahead	ADP	O
of	ADP	O
Ganeshotsav	NOUN	B-noun.person
:	.	O
police	NOUN	B-noun.group
URL	NOUN	B-noun.communication

Magic	ADJ	O
Key	NOUN	B-noun.person
Security	NOUN	I-noun.person
Locksmiths	NOUN	I-noun.person
Save	ADJ	O
?	.	O
NUMBER	NUM	B-noun.attribute
on	ADP	O
all	DET	O
Booked	VERB	B-verb.cognition
Services	NOUN	B-noun.act
with	ADP	O
@USER	NOUN	B-noun.person
URL	NOUN	B-noun.communication
@USER	NOUN	B-noun.person

#HNIC	NOUN	B-noun.person
#HNIC	NOUN	I-noun.person
Hamsik	NOUN	I-noun.person
vows	VERB	B-verb.communication
to	ADP	O
challenge	VERB	B-verb.communication
for	ADP	O
title	NOUN	B-noun.communication
with	ADP	O
Napoli	NOUN	B-noun.location
:	.	O
The	DET	O
Slovakia	NOUN	B-noun.group
international	NOUN	I-noun.group
was	VERB	B-verb.stative
in	ADP	O
...	.	O
URL	NOUN	B-noun.communication
on	ADP	O
@USER	NOUN	B-noun.person

Is	VERB	B-verb.stative
your	DET	O
cat	NOUN	B-noun.animal
safe	ADJ	O
from	ADP	O
disease	NOUN	B-noun.state
just	ADV	O
because	CONJ	O
he	PRON	O
got	VERB	B-verb.possession
a	DET	O
vaccine	NOUN	B-noun.artifact
?	.	O
It	PRON	O
depends	VERB	B-verb.stative
.	.	O
Find	VERB	B-verb.possession
out	PRT	O
why	ADV	O
URL	NOUN	B-noun.communication

I	PRON	O
posted	VERB	B-verb.contact
a	DET	O
new	ADJ	O
photo	NOUN	B-noun.artifact
to	ADP	O
Facebook	NOUN	B-noun.person
URL	NOUN	B-noun.communication

European	ADJ	O
Study	NOUN	B-noun.act
Finds	VERB	B-verb.possession
Megaupload	NOUN	B-noun.act
Closure	NOUN	I-noun.act
Helped	VERB	B-verb.social
Blockbusters	NOUN	B-noun.artifact
,	.	O
Hurt	VERB	B-verb.perception
Smaller	ADJ	O
Pics	NOUN	B-noun.communication
:	.	O
Researchers	NOUN	B-noun.person
from	ADP	O
the	DET	O
Munich	NOUN	B-noun.substance
Sc	NOUN	I-noun.substance
...	.	O
URL	NOUN	B-noun.communication

NUMBER	NUM	B-noun.state
Challenge	NOUN	I-noun.state
:	.	O
Move	VERB	B-verb.motion
a	DET	O
Mile	NOUN	B-noun.quantity
a	DET	O
Day	NOUN	B-noun.time
#getmefit2	NOUN	B-noun.person
URL	NOUN	B-noun.communication
URL	NOUN	B-noun.communication

Messi	NOUN	B-noun.person
,	.	O
who	PRON	O
is	VERB	B-verb.stative
recovering	VERB	B-verb.possession
from	ADP	O
a	DET	O
thigh	NOUN	B-noun.state
muscle	NOUN	I-noun.state
injury	NOUN	I-noun.state
,	.	O
rejoins	VERB	B-verb.social
the	DET	O
group	NOUN	B-noun.Tops
on	ADP	O
training	NOUN	B-noun.act
today	NOUN	B-noun.time
URL	NOUN	B-noun.communication

Whatever	ADV	O
your	DET	O
sexual	ADJ	O
fantasy	NOUN	B-noun.person
@USER	NOUN	I-noun.person
has	VERB	B-verb.possession
probably	ADV	O
written	VERB	B-verb.creation
about	ADP	O
it	PRON	O
URL	NOUN	B-noun.communication
Check	VERB	B-verb.cognition
out	PRT	O
his	DET	O
hot	ADJ	O
&	CONJ	O
sexy	ADJ	O
short	ADJ	O
stories	NOUN	B-noun.communication
.	.	O

@USER	NOUN	B-noun.person
Checkout	VERB	O
&	CONJ	O
Share	VERB	B-verb.stative
NEW	ADJ	O
Single	NOUN	B-noun.person
@USER	NOUN	I-noun.person
&	CONJ	O
@USER	NOUN	B-noun.person
-	.	O
Playtime	NOUN	B-noun.time
URL	NOUN	B-noun.communication
#RipMucho	NOUN	B-noun.person
#DoIt4Mucho	NOUN	B-noun.person
#FreeKush	NOUN	B-noun.person

Are	VERB	B-verb.stative
you	PRON	O
on	ADP	O
Google+	NOUN	B-noun.person
?	.	O
If	ADP	O
you	PRON	O
are	VERB	B-verb.stative
,	.	O
make	VERB	B-verb.social
sure	ADJ	O
to	ADP	O
follow	VERB	B-verb.motion
@USER	NOUN	B-noun.person
!	.	O
URL	NOUN	B-noun.communication

'	.	O
Manuelgross/management	NOUN	B-noun.person
'	.	O
news	NOUN	B-noun.communication
URL	NOUN	I-noun.communication
-	.	O
top	ADJ	O
stories	NOUN	B-noun.communication
by	ADP	O
RLloria	NOUN	B-noun.person
,	.	O
AliciaPomares	NOUN	B-noun.person
,	.	O
manuelgross	NOUN	B-noun.person

omg	X	O
but	CONJ	O
stop	VERB	B-verb.motion
with	ADP	O
articles	NOUN	B-noun.communication
about	ADP	O
Lea	NOUN	B-noun.quantity
and	CONJ	O
her	PRON	O
love	NOUN	B-noun.feeling
for	ADP	O
Cory	NOUN	B-noun.person
it	PRON	O
hurts	VERB	B-verb.perception
:'(	X	O
and	CONJ	O
it's	VERB	O
not	ADV	O
a	DET	O
good	ADJ	O
source	NOUN	B-noun.location
...	.	O
URL	NOUN	B-noun.communication

Why	ADV	O
barefoot	NOUN	B-noun.person
isn't	VERB	O
best	ADJ	O
for	ADP	O
most	DET	O
runners	NOUN	B-noun.person
URL	NOUN	B-noun.communication

Target	NOUN	B-noun.communication
:	.	O
Tena	NOUN	B-noun.act
Money	NOUN	I-noun.act
Maker	NOUN	I-noun.act
Deal	NOUN	I-noun.act
!!	.	O
URL	NOUN	B-noun.communication

Estate	NOUN	B-noun.state
agency	NOUN	I-noun.state
insolvencies	NOUN	I-noun.state
'	.	O
up	PRT	O
NUMBER	NUM	B-noun.attribute
URL	NOUN	B-noun.communication

White	ADJ	O
Paper	NOUN	B-noun.substance
:	.	O
How	ADV	O
to	ADP	O
Effectively	ADV	O
Integrate	VERB	B-verb.change
Social	ADJ	O
Media	NOUN	B-noun.communication
and	CONJ	O
Online	ADJ	O
Marketing	NOUN	B-noun.act
URL	NOUN	B-noun.communication

Mild	ADJ	O
temperatures	NOUN	B-noun.attribute
and	CONJ	O
low	ADJ	O
rain	NOUN	B-noun.state
chances	NOUN	I-noun.state
are	VERB	B-verb.stative
on	ADP	O
tap	NOUN	B-noun.event
to	ADP	O
start	VERB	B-verb.change
the	DET	O
work	NOUN	B-noun.time
week	NOUN	I-noun.time
.	.	O
URL	NOUN	B-noun.communication

Today	NOUN	B-noun.person
stats	NOUN	I-noun.person
:	.	O
NUMBER	NUM	B-noun.group
followers	NOUN	I-noun.group
,	.	O
No	DET	O
unfollowers	NOUN	B-noun.person
and	CONJ	O
followed	VERB	B-verb.motion
one	NUM	B-noun.Tops
person	NOUN	I-noun.Tops
via	ADP	O
URL	NOUN	B-noun.communication

#BBATheChase	NOUN	B-noun.person
:	.	O
NUMBER	NUM	B-noun.person
housemates	NOUN	I-noun.person
we	PRON	O
loved	VERB	B-verb.emotion
this	DET	O
year	NOUN	B-noun.time
URL	NOUN	B-noun.communication

#Cinetainment	NOUN	B-noun.person
:	.	O
#Warning	NOUN	B-noun.person
is	VERB	B-verb.stative
an	DET	O
upcoming	ADJ	O
Thriller	NOUN	B-noun.communication
NUMBER	NUM	I-noun.communication
film	NOUN	I-noun.communication
directed	VERB	B-verb.communication
by	ADP	O
#Gurmmeet	NOUN	B-noun.person
Singh	NOUN	I-noun.person
.	.	O
The	DET	O
film	NOUN	B-noun.communication
features	VERB	B-verb.stative
...	.	O
URL	NOUN	B-noun.communication

Do	VERB	B-verb.social
you	PRON	O
know	VERB	B-verb.cognition
Benjamin	NOUN	B-noun.event
Sir	NOUN	I-noun.event
twitter	NOUN	I-noun.event
or	CONJ	O
insta	NOUN	B-noun.person
?	.	O
?	.	O
Nope	X	O
,	.	O
sorry	X	O
(:	X	O
HEY	X	O
WHAT	DET	O
LAO	X	O
EH	X	O
!	.	O
I	PRON	O
NOT	ADV	O
SOME	DET	O
PHONE	NOUN	B-noun.communication
BOOK	NOUN	I-noun.communication
OR	CONJ	O
FACEBOOK	NOUN	B-noun.person
O	X	O
...	.	O
URL	NOUN	B-noun.communication

The	DET	O
event	NOUN	B-noun.Tops
with	ADP	O
Philip	NOUN	B-noun.artifact
Pullman	NOUN	I-noun.artifact
and	CONJ	O
@USER	NOUN	B-noun.person
in	ADP	O
Oxford	NOUN	B-noun.location
last	ADJ	O
week	NOUN	B-noun.time
was	VERB	B-verb.stative
magical	ADJ	O
.	.	O
Listen	VERB	B-verb.perception
to	ADP	O
the	DET	O
hour-long	ADJ	O
podcast	NOUN	B-noun.person
here	ADV	O
:	.	O
URL	NOUN	B-noun.communication

(	.	O
K-Dawg	NOUN	B-noun.person
)	.	O
I	PRON	O
can	VERB	B-verb.change
cook	VERB	B-verb.creation
,	.	O
bit	CONJ	O
i	PRON	O
CAN'T	VERB	O
operate	VERB	B-verb.social
the	DET	O
dishwasher	NOUN	B-noun.artifact
...	.	O
guess	VERB	B-verb.cognition
this	PRON	O
leaves	VERB	B-verb.motion
me	PRON	O
out	PRT	O
!	.	O
LOL	X	O
A	DET	O
handful	DET	O
of	ADP	O
YouTube	NOUN	B-noun.person
...	.	O
URL	NOUN	B-noun.communication

Today	ADV	O
stats	NOUN	B-noun.person
:	.	O
NUMBER	NUM	B-noun.group
followers	NOUN	I-noun.group
,	.	O
One	NUM	B-noun.person
unfollower	NOUN	I-noun.person
and	CONJ	O
followed	VERB	B-verb.motion
NUMBER	NUM	B-noun.group
people	NOUN	I-noun.group
via	ADP	O
URL	NOUN	B-noun.communication

Relatively	ADV	O
Satisfied	ADJ	O
Customers	NOUN	B-noun.person
:	.	O
Dilbert	NOUN	B-noun.person
URL	NOUN	B-noun.communication
#CartoonsandPictures	NOUN	B-noun.person
#UserExperience	NOUN	B-noun.person

Why	ADV	O
not	ADV	O
start	VERB	B-verb.change
the	DET	O
week	NOUN	B-noun.time
out	PRT	O
by	ADP	O
getting	VERB	B-verb.possession
depressed	ADJ	O
?	.	O
According	VERB	B-verb.stative
to	ADP	O
Jill	NOUN	B-noun.person
Konrath	NOUN	I-noun.person
,	.	O
?	.	O
when	ADV	O
people	NOUN	B-noun.group
try	VERB	B-verb.social
to	ADP	O
do	VERB	B-verb.social
two	NUM	B-noun.quantity
...	.	O
URL	NOUN	B-noun.communication

Venice	NOUN	B-noun.time
Festival	NOUN	I-noun.time
Offers	VERB	B-verb.possession
Bold	ADJ	O
Mix	NOUN	B-noun.food
:	.	O
As	ADV	O
the	DET	O
Venice	NOUN	B-noun.time
Film	NOUN	I-noun.time
Festival	NOUN	I-noun.time
celebrates	VERB	B-verb.social
its	DET	O
NUMBER	NUM	B-noun.time
year	NOUN	I-noun.time
,	.	O
its	DET	O
lineup	NOUN	B-noun.communication
looks	VERB	B-verb.perception
to	ADP	O
the	DET	O
...	.	O
URL	NOUN	B-noun.communication

@USER	NOUN	B-noun.person
:	.	O
Follow	VERB	B-verb.motion
@USER	NOUN	B-noun.person
and	CONJ	O
this	DET	O
tweet	NOUN	B-noun.event
to	ADP	O
win	VERB	B-verb.competition
this	DET	O
@USER	NOUN	B-noun.person
watch	VERB	B-verb.perception
worth	ADJ	O
?	.	O
NUMBER	NUM	B-noun.attribute
!	.	O
URL	NOUN	B-noun.communication
URL	NOUN	B-noun.communication

#Syria's	NOUN	B-noun.person
#Assad	NOUN	I-noun.person
dismisses	VERB	B-verb.communication
chemical	ADJ	O
weapon	NOUN	B-noun.act
use	NOUN	I-noun.act
as	ADP	O
politically	ADV	O
motivated	VERB	B-verb.creation
-	.	O
The	DET	O
Star	NOUN	B-noun.object
Online	NOUN	B-noun.person
URL	NOUN	B-noun.communication

Baseball	NOUN	B-noun.act
has	VERB	B-verb.possession
the	DET	O
great	ADJ	O
advantage	NOUN	B-noun.attribute
over	ADP	O
cricket	NOUN	B-noun.animal
of	ADP	O
being	VERB	B-verb.stative
sooner	ADV	O
ended	VERB	B-verb.stative
-	.	O
George	NOUN	B-noun.person
Bernard	NOUN	B-noun.person
Shaw	NOUN	B-noun.person
URL	NOUN	B-noun.communication
#Quotes	NOUN	B-noun.person

Were	VERB	B-verb.stative
ordered	VERB	B-verb.communication
to	ADP	O
chant	VERB	B-verb.communication
praise	NOUN	B-noun.communication
of	ADP	O
Narendra	NOUN	B-noun.person
Modi	NOUN	I-noun.person
,	.	O
say	VERB	B-verb.communication
Pune	NOUN	B-noun.person
film	NOUN	I-noun.person
students	NOUN	I-noun.person
after	ADP	O
clash	NOUN	B-noun.event
URL	NOUN	B-noun.communication

Zombie	NOUN	B-noun.communication
News	NOUN	I-noun.communication
:	.	O
Sneak	NOUN	B-noun.act
Peek	NOUN	I-noun.act
of	ADP	O
The	DET	O
Walking	NOUN	B-noun.quantity
Dead	NOUN	I-noun.quantity
Season	NOUN	I-noun.quantity
4	NUM	I-noun.quantity
Right	ADV	O
Here	ADV	O
!	.	O
URL	NOUN	B-noun.communication

WMAL	X	O
EXCLUSIVE	ADJ	O
:	.	O
Panhandling	NOUN	B-noun.communication
Ban	NOUN	I-noun.communication
Causes	VERB	B-verb.creation
Loudoun	NOUN	B-noun.person
Firefighters	NOUN	I-noun.person
'	.	O
"	.	O
Fill	VERB	B-verb.change
The	DET	O
Boot	NOUN	B-noun.artifact
"	.	O
Donations	NOUN	B-noun.possession
To	ADP	O
Dwindle	VERB	B-verb.change
URL	NOUN	B-noun.communication

Today	ADV	O
stats	NOUN	B-noun.person
:	.	O
One	NUM	B-noun.person
follower	NOUN	I-noun.person
,	.	O
2	NUM	B-noun.person
unfollowers	NOUN	I-noun.person
via	ADP	O
URL	NOUN	B-noun.communication

For	ADP	O
your	DET	O
Leadership	NOUN	B-noun.artifact
Toolbox	NOUN	I-noun.artifact
:	.	O
Evernote	NOUN	B-noun.person
?	.	O
A	DET	O
Multi-Platform	ADJ	O
Way	NOUN	B-noun.attribute
to	ADP	O
Stay	VERB	B-verb.change
Organized	ADJ	O
and	CONJ	O
More	ADV	O
(	.	O
@USER	NOUN	B-noun.person
)	.	O
|	.	O
URL	NOUN	B-noun.communication

Watch	VERB	B-verb.perception
Aaron	NOUN	B-noun.artifact
Paul's	NOUN	I-noun.artifact
Audition	NOUN	I-noun.artifact
Tape	NOUN	I-noun.artifact
For	ADP	O
Breaking	NOUN	B-noun.act
Bad	NOUN	B-noun.attribute
URL	NOUN	B-noun.communication

@USER	NOUN	B-noun.person
:	.	O
Fancams	NOUN	B-noun.person
:	.	O
G-Dragon	NOUN	B-noun.person
and	CONJ	O
Missy	NOUN	B-noun.person
Elliott	NOUN	I-noun.person
perform	VERB	B-verb.creation
"	.	O
Niliria	NOUN	B-noun.person
"	.	O
@USER	NOUN	B-noun.person
KCON	NOUN	B-noun.person
URL	NOUN	B-noun.communication

Sihuan	NOUN	B-noun.artifact
Pharmaceutical	NOUN	I-noun.artifact
Announces	VERB	B-verb.communication
NUMBER	NUM	B-noun.attribute
Interim	ADJ	O
Results	NOUN	B-noun.phenomenon
URL	NOUN	B-noun.communication

Howard	NOUN	B-noun.person
:	.	O
Baines	NOUN	B-noun.person
and	CONJ	O
Fellaini	NOUN	B-noun.person
not	ADV	O
fazed	VERB	B-verb.emotion
by	ADP	O
bid	NOUN	B-noun.communication
URL	NOUN	B-noun.communication

Today	NOUN	B-noun.person
stats	NOUN	I-noun.person
:	.	O
2	NUM	B-noun.group
followers	NOUN	I-noun.group
,	.	O
2	NUM	B-noun.person
unfollowers	NOUN	I-noun.person
and	CONJ	O
followed	VERB	B-verb.motion
NUMBER	NUM	B-noun.group
people	NOUN	I-noun.group
via	ADP	O
URL	NOUN	B-noun.communication

No	DET	O
#usopen	NOUN	B-noun.communication
credential	NOUN	I-noun.communication
for	ADP	O
Tomic's	NOUN	B-noun.person
dad	NOUN	I-noun.person
:	.	O
"	.	O
Our	DET	O
desire	NOUN	B-noun.feeling
is	VERB	B-verb.stative
to	ADP	O
make	VERB	B-verb.social
it	PRON	O
as	ADP	O
difficult	ADJ	O
as	ADP	O
possible	ADJ	O
for	ADP	O
him	PRON	O
to	ADP	O
gain	VERB	B-verb.possession
entry	NOUN	B-noun.communication
"	.	O
URL	NOUN	B-noun.communication

Senior	ADJ	O
Accountant/Financial	NOUN	B-noun.person
controller(ACCA	NOUN	I-noun.person
)	.	O
-	.	O
#Qatar	NOUN	B-noun.person
#Jobs	NOUN	B-noun.person
URL	NOUN	B-noun.communication

We've	VERB	O
been	VERB	B-verb.stative
waiting	VERB	B-verb.stative
for	ADP	O
you	PRON	O
.	.	O
.	.	O
.	.	O
Memo	NOUN	B-noun.communication
to	ADP	O
CEOs	NOUN	B-noun.person
:	.	O
Go	VERB	B-verb.motion
Social	ADJ	O
or	CONJ	O
Go	VERB	B-verb.motion
Home	NOUN	B-noun.location
|	.	O
LinkedIn	NOUN	B-noun.person
URL	NOUN	B-noun.communication
#CEO	NOUN	B-noun.person
#leadership	NOUN	B-noun.person
#management	NOUN	B-noun.person
#SoMe	NOUN	B-noun.person

#HNIC	NOUN	B-noun.person
#HNIC	NOUN	I-noun.person
Xavi	NOUN	I-noun.person
:	.	O
La	NOUN	B-noun.person
Liga	NOUN	I-noun.person
not	ADV	O
a	DET	O
two-horse	NOUN	B-noun.event
race	NOUN	I-noun.event
:	.	O
The	DET	O
NUMBER	NUM	B-noun.attribute
feels	VERB	B-verb.emotion
that	ADP	O
Malaga	NOUN	B-noun.location
showed	VERB	B-verb.perception
...	.	O
URL	NOUN	B-noun.communication
on	ADP	O
@USER	NOUN	B-noun.person

CRED	NOUN	B-noun.cognition
Communications	NOUN	I-noun.cognition
and	CONJ	O
PRecious	NOUN	B-noun.cognition
Communications	NOUN	I-noun.cognition
embark	VERB	B-verb.motion
on	ADP	O
strategic	ADJ	O
partnership	NOUN	B-noun.communication
URL	NOUN	I-noun.communication
via	ADP	O
@USER	NOUN	B-noun.person

WATCH	VERB	B-verb.perception
:	.	O
Surviving	ADJ	O
Panda	NOUN	B-noun.person
Cub	NOUN	I-noun.person
At	ADP	O
National	ADJ	O
Zoo	NOUN	B-noun.artifact
Appears	VERB	B-verb.perception
Healthy	ADJ	O
,	.	O
Vibrant	ADJ	O
URL	NOUN	B-noun.communication

URL	NOUN	B-noun.communication
Several	DET	O
months	NOUN	B-noun.time
in	ADP	O
Portugal	NOUN	B-noun.location
,	.	O
still	ADV	O
don't	VERB	O
understand	VERB	B-verb.cognition
Portuguese	NOUN	B-noun.communication

#VIEW	NOUN	B-noun.person
-NOW	ADV	O
--->	X	O
@USER	NOUN	B-noun.person
?	.	O
Over	ADP	O
?	.	O
Dir	NOUN	B-noun.person
by	ADP	O
@USER	NOUN	B-noun.person
x	X	O
@USER	NOUN	B-noun.person
(	.	O
Music	NOUN	B-noun.communication
Video	NOUN	I-noun.communication
)	.	O
|	.	O
trappedoutseries	NOUN	B-noun.person
:	.	O
URL	NOUN	B-noun.communication

Today	NOUN	B-noun.person
stats	NOUN	I-noun.person
:	.	O
One	NUM	B-noun.person
follower	NOUN	I-noun.person
,	.	O
No	DET	O
unfollowers	NOUN	B-noun.person
and	CONJ	O
followed	VERB	B-verb.motion
one	NUM	B-noun.Tops
person	NOUN	I-noun.Tops
via	ADP	O
URL	NOUN	B-noun.communication

Man	NOUN	B-noun.person
arrested	VERB	B-verb.contact
after	ADP	O
farm	NOUN	B-noun.artifact
road	NOUN	B-noun.artifact
crash	NOUN	B-noun.event
URL	NOUN	B-noun.communication

I	PRON	O
posted	VERB	B-verb.contact
a	DET	O
new	ADJ	O
photo	NOUN	B-noun.artifact
to	ADP	O
Facebook	NOUN	B-noun.person
URL	NOUN	B-noun.communication

Today	NOUN	B-noun.person
stats	NOUN	I-noun.person
:	.	O
One	NUM	B-noun.person
follower	NOUN	I-noun.person
,	.	O
One	NUM	B-noun.person
unfollower	NOUN	I-noun.person
and	CONJ	O
followed	VERB	B-verb.motion
2	NUM	B-noun.group
people	NOUN	I-noun.group
via	ADP	O
URL	NOUN	B-noun.communication

I	PRON	O
liked	VERB	B-verb.emotion
a	DET	O
@USER	NOUN	B-noun.attribute
video	NOUN	I-noun.attribute
URL	NOUN	I-noun.attribute
Cubase	NOUN	I-noun.attribute
NUMBER	NUM	I-noun.attribute
Patch	NOUN	I-noun.attribute
and	CONJ	O
Crack	NOUN	B-noun.object
Team	NOUN	B-noun.group
Air	NOUN	B-noun.substance

Sep	NOUN	B-noun.attribute
NUMBER	NUM	I-noun.attribute
(	.	O
Fri	NOUN	B-noun.time
)	.	O
DreamYard's	NOUN	B-noun.person
Annual	ADJ	O
Movie	NOUN	B-noun.communication
Night	NOUN	B-noun.time
URL	NOUN	B-noun.communication

@USER	NOUN	B-noun.person
Presents	VERB	B-verb.perception
The	DET	O
Aurora	NOUN	B-noun.person
Soul	NOUN	I-noun.person
Sessions	NOUN	I-noun.person
Showcase	NOUN	I-noun.person
@USER	NOUN	I-noun.person
|	.	O
Details	NOUN	B-noun.communication
@USER	NOUN	B-noun.person
URL	NOUN	B-noun.communication

@USER	NOUN	B-noun.person
Barry	NOUN	I-noun.person
Sergeant's	NOUN	I-noun.person
The	DET	O
Assault	NOUN	B-noun.act
on	ADP	O
the	DET	O
Rand	NOUN	B-noun.quantity
Launched	VERB	B-verb.social
with	ADP	O
Kevin	NOUN	B-noun.person
Wakeford	NOUN	I-noun.person
and	CONJ	O
Susan	NOUN	B-noun.person
Comrie	NOUN	B-noun.person
URL	NOUN	B-noun.communication

Note	NOUN	B-noun.communication
to	ADP	O
Correspondents	NOUN	B-noun.person
on	ADP	O
the	DET	O
UN	NOUN	B-noun.group
Chemical	ADJ	O
Weapons	NOUN	B-noun.group
Investigation	NOUN	I-noun.group
Team	NOUN	I-noun.group
in	ADP	O
Damascus	NOUN	B-noun.location
URL	NOUN	B-noun.communication

Safety	NOUN	B-noun.state
Drives	VERB	B-verb.motion
Robot	NOUN	B-noun.act
Adoption	NOUN	I-noun.act
in	ADP	O
Warehouses	NOUN	B-noun.artifact
and	CONJ	O
Distributions	NOUN	B-noun.location
Centers	NOUN	I-noun.location
According	VERB	B-verb.stative
to	ADP	O
TR	NOUN	B-noun.person
Cutler	NOUN	B-noun.person
URL	NOUN	B-noun.communication

The	DET	O
Western	ADJ	O
fence	NOUN	B-noun.animal
lizard	NOUN	I-noun.animal
has	VERB	B-verb.possession
a	DET	O
protein	NOUN	B-noun.substance
in	ADP	O
its	DET	O
blood	NOUN	B-noun.body
that	DET	O
kills	VERB	B-verb.contact
the	DET	O
bacterium	NOUN	B-noun.animal
responsible	ADJ	O
for	ADP	O
Lyme	NOUN	B-noun.state
disease	NOUN	I-noun.state
:	.	O
What	DET	O
...	.	O
URL	NOUN	B-noun.communication

Venice	NOUN	B-noun.time
Festival	NOUN	I-noun.time
Offers	VERB	B-verb.possession
Bold	ADJ	O
Mix	NOUN	B-noun.food
:	.	O
As	ADP	O
the	DET	O
Venice	NOUN	B-noun.time
Film	NOUN	I-noun.time
Festival	NOUN	I-noun.time
celebrates	VERB	B-verb.social
its	DET	O
NUMBER	NUM	B-noun.time
year	NOUN	I-noun.time
,	.	O
its	DET	O
lineup	NOUN	B-noun.communication
looks	VERB	B-verb.perception
to	ADP	O
the	DET	O
...	.	O
URL	NOUN	B-noun.communication

One	DET	O
of	ADP	O
my	DET	O
favorite	ADJ	O
coaches	NOUN	B-noun.person
&	CONJ	O
leaders	NOUN	B-noun.group
of	ADP	O
ALL-Time	NOUN	B-noun.person
is	VERB	B-verb.stative
John	NOUN	B-noun.person
Wooden	NOUN	I-noun.person
.	.	O
And	CONJ	O
one	DET	O
of	ADP	O
my	DET	O
favorite	ADJ	O
books	NOUN	B-noun.communication
is	VERB	B-verb.stative
his	DET	O
"	.	O
Pyramid	NOUN	B-noun.shape
of	ADP	O
...	.	O
URL	NOUN	B-noun.communication

@USER	NOUN	B-noun.person
:	.	O
Day	NOUN	B-noun.time
after	ADP	O
giant	ADJ	O
panda	NOUN	B-noun.animal
gave	VERB	B-verb.possession
birth	NOUN	B-noun.time
to	ADP	O
a	DET	O
live	ADJ	O
cub	NOUN	B-noun.person
,	.	O
she	PRON	O
delivered	VERB	B-verb.communication
a	DET	O
stillborn	NOUN	B-noun.person
:	.	O
URL	NOUN	B-noun.communication

ABRSM	NOUN	B-noun.person
Scale	VERB	B-verb.stative
Practice	NOUN	B-noun.communication
Charts	NOUN	I-noun.communication
for	ADP	O
Piano	NOUN	B-noun.attribute
Grades	NOUN	I-noun.attribute
NUMBER	NUM	I-noun.attribute
to	ADP	O
4	NUM	B-noun.quantity
URL	NOUN	B-noun.communication

Nissan	NOUN	B-noun.person
Terrano	NOUN	I-noun.person
:	.	O
next-gen	ADJ	O
compact	ADJ	O
SUV	NOUN	B-noun.artifact
not	ADV	O
for	ADP	O
Oz	NOUN	B-noun.person
URL	NOUN	B-noun.communication

Today	ADV	O
stats	NOUN	B-noun.person
:	.	O
NUMBER	NUM	B-noun.group
followers	NOUN	I-noun.group
,	.	O
NUMBER	NUM	B-noun.person
unfollowers	NOUN	I-noun.person
via	ADP	O
URL	NOUN	B-noun.communication

Venice	NOUN	B-noun.time
Festival	NOUN	I-noun.time
Offers	VERB	B-verb.possession
Bold	ADJ	O
Mix	NOUN	B-noun.food
:	.	O
As	ADP	O
the	DET	O
Venice	NOUN	B-noun.time
Film	NOUN	I-noun.time
Festival	NOUN	I-noun.time
celebrates	VERB	B-verb.social
its	DET	O
NUMBER	NUM	B-noun.time
year	NOUN	I-noun.time
,	.	O
its	DET	O
lineup	NOUN	B-noun.communication
looks	VERB	B-verb.perception
to	ADP	O
the	DET	O
...	.	O
URL	NOUN	B-noun.communication

I	PRON	O
posted	VERB	B-verb.contact
a	DET	O
new	ADJ	O
photo	NOUN	B-noun.artifact
to	ADP	O
Facebook	NOUN	B-noun.person
URL	NOUN	B-noun.communication

The	DET	O
night	NOUN	B-noun.time
that	PRON	O
Jam	NOUN	B-noun.body
Master	NOUN	I-noun.body
Jay's	NOUN	I-noun.body
hand	NOUN	I-noun.body
slipped	VERB	B-verb.motion
!	.	O
Analysis	NOUN	B-noun.act
by	ADP	O
Cosmo	NOUN	B-noun.person
Baker	NOUN	I-noun.person
:	.	O
URL	NOUN	B-noun.communication

@USER	NOUN	B-noun.person
:	.	O
AgriNews	NOUN	B-noun.person
:	.	O
#Vilsack	NOUN	B-noun.person
#US	NOUN	I-noun.person
will	VERB	B-verb.communication
stop	VERB	B-verb.motion
#cotton	NOUN	B-noun.possession
payments	NOUN	I-noun.possession
to	ADP	O
#Brazil	NOUN	B-noun.communication
URL	NOUN	I-noun.communication
via	ADP	O
@USER	NOUN	B-noun.person
#trade	NOUN	B-noun.person
#WTO	NOUN	B-noun.person

@USER	NOUN	B-noun.person
:	.	O
Seamless	ADJ	O
wirefee	ADJ	O
Leisure	NOUN	B-noun.person
#bra	NOUN	I-noun.person
Read	VERB	B-verb.cognition
more	ADJ	O
:	.	O
URL	NOUN	B-noun.communication
URL	NOUN	B-noun.communication

Remembering	VERB	B-verb.cognition
:	.	O
very	ADV	O
kinky	ADJ	O
Karlie	NOUN	B-noun.person
Kloss	NOUN	I-noun.person
shot	VERB	B-verb.competition
by	ADP	O
Greg	NOUN	B-noun.person
Kadel	NOUN	I-noun.person
for	ADP	O
Num	NOUN	B-noun.person
?	.	O
ro	X	O
Russia's	NOUN	B-noun.cognition
October	NOUN	I-noun.cognition
NUMBER	NUM	I-noun.cognition
issue	NOUN	I-noun.cognition
.	.	O
#Karlie	NOUN	B-noun.person
#Kloss	NOUN	I-noun.person
...	.	O
URL	NOUN	B-noun.communication

#Syria's	NOUN	B-noun.person
#Assad	NOUN	I-noun.person
reportedly	ADV	O
denies	VERB	B-verb.communication
use	NOUN	B-noun.act
of	ADP	O
chemical	ADJ	O
weapons	NOUN	B-noun.artifact
-	.	O
Los	NOUN	B-noun.person
Angeles	NOUN	B-noun.person
Times	NOUN	B-noun.time
URL	NOUN	B-noun.communication

@USER	NOUN	B-noun.person
:	.	O
On	ADP	O
more	ADJ	O
time	NOUN	B-noun.event
.	.	O
Why	ADV	O
should	VERB	O
I	PRON	O
switch	VERB	B-verb.change
to	ADP	O
Software	NOUN	B-noun.communication
as	ADP	O
a	DET	O
Service	NOUN	B-noun.act
,	.	O
anyway	ADV	O
?	.	O
URL	NOUN	B-noun.communication
#IBM	NOUN	B-noun.person
#IBMCloud	NOUN	B-noun.person
#SaaS	NOUN	B-noun.person
#Cloud	NOUN	B-noun.person

Signs	NOUN	B-noun.communication
that	DET	O
you	PRON	O
have	VERB	B-verb.possession
cancer	NOUN	B-noun.state
:	.	O
early	ADJ	O
detection	NOUN	B-noun.cognition
is	VERB	B-verb.stative
key	NOUN	B-noun.artifact
,	.	O
this	PRON	O
could	VERB	O
save	VERB	B-verb.social
your	DET	O
life	NOUN	B-noun.state
.	.	O
URL	NOUN	B-noun.communication

#HNIC	NOUN	B-noun.person
#HNIC	NOUN	I-noun.person
Rodgers	NOUN	I-noun.person
:	.	O
England	NOUN	B-noun.location
are	VERB	B-verb.stative
lucky	ADJ	O
to	ADP	O
have	VERB	B-verb.possession
Sturridge	NOUN	B-noun.person
:	.	O
The	DET	O
NUMBER	NUM	B-noun.attribute
has	VERB	B-verb.possession
scored	VERB	B-verb.competition
winning	ADV	O
...	.	O
URL	NOUN	B-noun.communication
on	ADP	O
@USER	NOUN	B-noun.person

@USER	NOUN	B-noun.person
:	.	O
VT	NOUN	B-noun.location
is	VERB	B-verb.stative
starting	VERB	B-verb.change
a	DET	O
true	ADJ	O
FR	NOUN	B-noun.person
Jonathan	NOUN	I-noun.person
McLaughlin	NOUN	I-noun.person
at	ADP	O
LT	NOUN	B-noun.person
against	ADP	O
Saban's	NOUN	B-noun.substance
D	NOUN	I-noun.substance
.	.	O
Good	ADJ	O
luck	NOUN	B-noun.person
#Hokies	NOUN	I-noun.person
:	.	O
URL	NOUN	B-noun.communication
#Bama	NOUN	B-noun.person

TEEN	NOUN	B-noun.location
TOP	NOUN	I-noun.location
make	VERB	B-verb.social
a	DET	O
performances	NOUN	B-noun.communication
"	.	O
ROCKING	VERB	B-verb.motion
"	.	O
at	ADP	O
Concert	NOUN	B-noun.attribute
KCON	NOUN	I-noun.attribute
NUMBER	NUM	I-noun.attribute
in	ADP	O
L.A	NOUN	B-noun.person
URL	NOUN	B-noun.communication

Is	VERB	B-verb.stative
the	DET	O
rumor	NOUN	B-noun.communication
regarding	ADP	O
TTS	NOUN	B-noun.time
english	ADJ	O
album	NOUN	B-noun.communication
leggit	ADJ	O
?	.	O
?	.	O
Since	ADP	O
the	DET	O
info	NOUN	B-noun.communication
are	VERB	B-verb.stative
from	ADP	O
SSF	NOUN	B-noun.person
,	.	O
I	PRON	O
guess	VERB	B-verb.cognition
it	PRON	O
is	VERB	B-verb.stative
URL	NOUN	B-noun.communication

European	ADJ	O
Study	NOUN	B-noun.act
Finds	VERB	B-verb.possession
Megaupload	NOUN	B-noun.act
Closure	NOUN	I-noun.act
Helped	VERB	B-verb.social
Blockbusters	NOUN	B-noun.artifact
,	.	O
Hurt	VERB	B-verb.perception
Smaller	ADJ	O
Pics	NOUN	B-noun.communication
:	.	O
Researchers	NOUN	B-noun.person
from	ADP	O
the	DET	O
Munich	NOUN	B-noun.location
Sc	X	O
...	.	O
URL	NOUN	B-noun.communication

Good	ADJ	O
Monday	NOUN	B-noun.time
morning	NOUN	I-noun.time
:)	X	O
Here	ADV	O
are	VERB	B-verb.stative
a	DET	O
million	NUM	B-noun.quantity
beautiful	ADJ	O
WWI	NOUN	B-noun.artifact
photos	NOUN	I-noun.artifact
,	.	O
just	ADV	O
for	ADP	O
you	PRON	O
URL	NOUN	B-noun.communication
@USER	NOUN	B-noun.person

[	.	O
PHOTOS	NOUN	B-noun.artifact
]	.	O
SwizzBeatz	NOUN	B-noun.person
Praises	VERB	B-verb.communication
Femi	NOUN	B-noun.person
Kuti	NOUN	I-noun.person
?	.	O
s	NOUN	B-noun.communication
Album	NOUN	I-noun.communication
Via	ADP	O
Instagram	NOUN	B-noun.person
URL	NOUN	B-noun.communication

I	PRON	O
DON	VERB	B-verb.body
?	.	O
T	VERB	O
GET	VERB	B-verb.possession
CELEBRITITES	NOUN	B-noun.person
,	.	O
THEY	PRON	O
HAVE	VERB	B-verb.possession
SO	ADV	O
MUCH	ADJ	O
MONEY	NOUN	B-noun.possession
AND	CONJ	O
YET	ADV	O
THEY	PRON	O
WEAR	VERB	B-verb.body
LIKE	X	O
THE	DET	O
UGLIEST	ADJ	O
AND	CONJ	O
STUPIDEST	ADJ	O
OUTFITS	NOUN	B-noun.group
...	.	O
URL	NOUN	B-noun.communication

Venice	NOUN	B-noun.time
Festival	NOUN	I-noun.time
Offers	VERB	B-verb.possession
Bold	ADJ	O
Mix	NOUN	B-noun.food
:	.	O
As	ADV	O
the	DET	O
Venice	NOUN	B-noun.time
Film	NOUN	I-noun.time
Festival	NOUN	I-noun.time
celebrates	VERB	B-verb.social
its	DET	O
NUMBER	NUM	B-noun.time
year	NOUN	I-noun.time
,	.	O
its	DET	O
lineup	NOUN	B-noun.communication
looks	VERB	B-verb.perception
to	ADP	O
the	DET	O
...	.	O
URL	NOUN	B-noun.communication

On	ADP	O
this	DET	O
date	NOUN	B-noun.time
in	ADP	O
WWF	X	O
history	NOUN	B-noun.time
:	.	O
Bret	NOUN	B-noun.person
Hart	NOUN	I-noun.person
vs	X	O
Mr.	NOUN	B-noun.relation
Perfect	NOUN	I-noun.relation
for	ADP	O
the	DET	O
Intercontinental	ADJ	O
title	NOUN	B-noun.communication
at	ADP	O
SummerSlam	NOUN	B-noun.person
NUMBER	NUM	B-noun.attribute
URL	NOUN	B-noun.communication

URGENT	ADJ	O
:	.	O
#Damascus	NOUN	B-noun.person
,	.	O
NUMBER	NUM	B-noun.attribute
:	.	O
All	DET	O
important	ADJ	O
and	CONJ	O
sensitive	ADJ	O
documents	NOUN	B-noun.communication
in	ADP	O
the	DET	O
Presidential	ADJ	O
Palace	NOUN	B-noun.artifact
are	VERB	B-verb.stative
reportedly	ADV	O
...	.	O
URL	NOUN	B-noun.communication

@USER	NOUN	B-noun.person
:	.	O
Just	ADV	O
got	VERB	B-verb.possession
a	DET	O
shot	NOUN	B-noun.act
in	ADP	O
my	DET	O
butt	NOUN	B-noun.artifact
...	.	O
gotta	VERB	O
be	VERB	B-verb.stative
in	ADP	O
top	ADJ	O
shape	NOUN	B-noun.attribute
for	ADP	O
tonight	NOUN	B-noun.time
!	.	O
?	.	O
lol	X	O
URL	NOUN	B-noun.communication

Inspire	VERB	B-verb.emotion
people	NOUN	B-noun.group
through	ADP	O
your	DET	O
song	NOUN	B-noun.communication
towards	ADP	O
a	DET	O
cleaner	ADJ	O
,	.	O
greener	ADJ	O
Singapore	NOUN	B-noun.location
and	CONJ	O
win	VERB	B-verb.competition
up	ADP	O
to	ADP	O
NUMBER	NUM	B-noun.attribute
!	.	O
#EcoMusic	NOUN	B-noun.person
Challenge	NOUN	B-noun.state
URL	NOUN	B-noun.communication

@USER	NOUN	B-noun.person
:	.	O
#Syria	NOUN	B-noun.person
:	.	O
Hague	NOUN	B-noun.person
hints	VERB	B-verb.communication
at	ADP	O
military	ADJ	O
action	NOUN	B-noun.act
-	.	O
latest	ADJ	O
news	NOUN	B-noun.communication
URL	NOUN	I-noun.communication
via	ADP	O
@USER	NOUN	B-noun.person
#ASSAD	NOUN	B-noun.person
#chemicalweapons	NOUN	B-noun.person

Photo	NOUN	B-noun.artifact
:	.	O
elucidatings	NOUN	B-noun.person
:	.	O
Promoting	VERB	B-verb.social
all	DET	O
NEW	ADJ	O
followers	NOUN	B-noun.group
URL	NOUN	B-noun.communication

@USER	NOUN	B-noun.person
:	.	O
David	NOUN	B-noun.person
Guetta	NOUN	I-noun.person
Rescheduled	VERB	B-verb.communication
at	ADP	O
Creamfields	NOUN	B-noun.person
Due	CONJ	O
to	ADP	O
Airplane	NOUN	B-noun.event
Fire	NOUN	I-noun.event
|	.	O
Your	DET	O
EDM	X	O
URL	NOUN	B-noun.communication

Hire	VERB	B-verb.social
Or	CONJ	O
Provide	VERB	B-verb.possession
Professional	ADJ	O
Services	NOUN	B-noun.act
From	ADP	O
NUMBER	NUM	B-noun.attribute
To	ADP	O
NUMBER	NUM	B-noun.attribute
URL	NOUN	B-noun.communication

@USER	NOUN	B-noun.person
:	.	O
?	.	O
Just	ADV	O
Announced	VERB	B-verb.communication
:	.	O
Zurich	NOUN	B-noun.location
,	.	O
Switzerland	NOUN	B-noun.location
-	.	O
Dec	NOUN	B-noun.attribute
NUMBER	NUM	I-noun.attribute
at	ADP	O
Mascotte	NOUN	B-noun.person
URL	NOUN	B-noun.communication

@USER	NOUN	B-noun.person
:	.	O
Breaking	ADJ	O
News	NOUN	B-noun.communication
:	.	O
U.N.	NOUN	B-noun.person
chemical	ADJ	O
weapons	NOUN	B-noun.group
team	NOUN	I-noun.group
under	ADP	O
fire	NOUN	B-noun.event
in	ADP	O
Syria	NOUN	B-noun.location
URL	NOUN	B-noun.communication

I'm	VERB	O
A	DET	O
Real	ADJ	O
Girl	NOUN	B-noun.person
URL	NOUN	B-noun.communication

Valon	NOUN	B-noun.person
Behrami	NOUN	I-noun.person
West	NOUN	I-noun.person
Ham	NOUN	I-noun.person
Napoli	NOUN	I-noun.person
Lazio	NOUN	I-noun.person
Fiorentina	NOUN	I-noun.person
Signed	ADJ	O
autograph	NOUN	B-noun.artifact
Card	NOUN	I-noun.artifact
:	.	O
NUMBER	NUM	B-noun.time
End	NOUN	I-noun.time
Date	NOUN	I-noun.time
:	.	O
Wednesday	NOUN	B-noun.person
Sep-25-2013	NOUN	I-noun.person
...	.	O
URL	NOUN	B-noun.communication

@USER	NOUN	B-noun.person
:	.	O
COUNT	VERB	B-verb.communication
ME	PRON	O
IN	PRT	O
!	.	O
Ted	NOUN	B-noun.person
Cruz	NOUN	I-noun.person
says	VERB	B-verb.communication
a	DET	O
'	.	O
Grassroots	NOUN	B-noun.event
Tsunami	NOUN	I-noun.event
'	.	O
is	VERB	B-verb.stative
Needed	VERB	B-verb.stative
to	ADP	O
Defund	VERB	O
Obamacare	NOUN	B-noun.person
.	.	O
URL	NOUN	B-noun.communication
Pls	PRT	O
RT	VERB	O

NUMBER	NUM	B-noun.attribute
of	ADP	O
Teens	NOUN	B-noun.time
Share	VERB	B-verb.stative
Too	ADV	O
Much	ADJ	O
Personal	ADJ	O
Data	NOUN	B-noun.group
,	.	O
a	DET	O
LifeLock	NOUN	B-noun.act
Survey	NOUN	I-noun.act
Finds	VERB	B-verb.possession
URL	NOUN	B-noun.communication

Honda	NOUN	B-noun.attribute
Civic	NOUN	I-noun.attribute
NUMBER	NUM	I-noun.attribute
FLYAUDIO	NOUN	I-noun.attribute
NUMBER	NUM	I-noun.attribute
Gen	NOUN	I-noun.attribute
NUMBER	NUM	I-noun.attribute
"	.	O
screen/GPS/DVD/IPOD/BT/MP3/USB/RD	NOUN	B-noun.person
:	.	O
NUMBER	NUM	B-noun.attribute
(	.	O
NUMBER	NUM	B-noun.communication
Bids	NOUN	I-noun.communication
)	.	O
End	NOUN	B-noun.time
Date	NOUN	I-noun.time
:	.	O
Thursday	NOUN	B-noun.time
...	.	O
URL	NOUN	B-noun.communication

New	ADJ	O
to	ADP	O
the	DET	O
Pancake	NOUN	B-noun.artifact
Pantry	NOUN	I-noun.artifact
?	.	O
We're	VERB	O
open	ADJ	O
ALL	DET	O
year	NOUN	B-noun.time
round	ADP	O
(	.	O
except	ADP	O
Thanksgiving	NOUN	B-noun.time
and	CONJ	O
Christmas	NOUN	B-noun.time
Day	NOUN	I-noun.time
)	.	O
.	.	O
We	PRON	O
are	VERB	B-verb.stative
even	ADV	O
open	ADJ	O
...	.	O
URL	NOUN	B-noun.communication

@USER	NOUN	B-noun.person
:	.	O
Syria	NOUN	B-noun.location
Changes	VERB	B-verb.change
Course	NOUN	B-noun.act
,	.	O
Will	VERB	B-verb.communication
Allow	VERB	B-verb.social
Inspectors	NOUN	B-noun.person
:	.	O
URL	NOUN	B-noun.communication

I'm	VERB	O
at	ADP	O
Pacific	NOUN	B-noun.artifact
Transload	NOUN	I-noun.artifact
Systems	NOUN	I-noun.artifact
-	.	O
Port	NOUN	B-noun.location
Of	ADP	O
Oakland	NOUN	B-noun.location
(	.	O
Oakland	NOUN	B-noun.location
,	.	O
CA	NOUN	B-noun.substance
)	.	O
URL	NOUN	B-noun.communication

Photo	NOUN	B-noun.artifact
:	.	O
Alessandra	NOUN	B-noun.person
Kamaile	NOUN	I-noun.person
-	.	O
inspiring	ADJ	O
picture	NOUN	B-noun.artifact
on	ADP	O
URL	NOUN	B-noun.communication
en	X	O
We	PRON	O
Heart	VERB	O
It	PRON	O
....	.	O
URL	NOUN	B-noun.communication

Baffled	ADJ	O
Di	NOUN	B-noun.person
Resta	NOUN	I-noun.person
rues	VERB	B-verb.emotion
collision	NOUN	B-noun.event
URL	NOUN	B-noun.communication

"	.	O
Dictionaries	NOUN	B-noun.communication
Redefine	VERB	B-verb.stative
'	.	O
Marriage	NOUN	B-noun.state
'	.	O
in	ADP	O
Wake	NOUN	B-noun.phenomenon
of	ADP	O
British	ADJ	O
Gay	NOUN	B-noun.communication
Marriage	NOUN	I-noun.communication
Legislation	NOUN	I-noun.communication
"	.	O
What	PRON	O
do	VERB	B-verb.social
you	PRON	O
think	VERB	B-verb.cognition
?	.	O
URL	NOUN	B-noun.communication

Photo	NOUN	B-noun.artifact
?	.	O
At	ADP	O
The	DET	O
End	NOUN	B-noun.location
of	ADP	O
the	DET	O
World	NOUN	B-noun.object
?	.	O
by	ADP	O
wim	NOUN	B-noun.person
denijs	NOUN	B-noun.person
#500px	NOUN	B-noun.person
URL	NOUN	B-noun.communication

If	ADP	O
you	PRON	O
were	VERB	B-verb.stative
a	DET	O
car	NOUN	B-noun.artifact
,	.	O
what	PRON	O
kind	NOUN	B-noun.cognition
of	ADP	O
car	NOUN	B-noun.artifact
would	VERB	O
you	PRON	O
be	VERB	B-verb.stative
?	.	O
?	.	O
the	DET	O
Mini	NOUN	B-noun.artifact
Cooper	NOUN	B-noun.person
Convertible	NOUN	B-noun.artifact
one	NUM	B-noun.quantity
URL	NOUN	B-noun.communication

@USER	NOUN	B-noun.person
:	.	O
?	.	O
NUMBER	NUM	B-noun.cognition
Cognitive	NOUN	I-noun.cognition
Biases	NOUN	I-noun.cognition
That	PRON	O
Screw	VERB	B-verb.contact
Up	PRT	O
How	ADV	O
We	PRON	O
Think	VERB	B-verb.cognition
?	.	O
URL	NOUN	B-noun.communication
via	ADP	O
@USER	NOUN	B-noun.person

Today	NOUN	B-noun.person
stats	NOUN	I-noun.person
:	.	O
NUMBER	NUM	B-noun.group
followers	NOUN	I-noun.group
,	.	O
NUMBER	NUM	B-noun.person
unfollowers	NOUN	I-noun.person
and	CONJ	O
followed	VERB	B-verb.motion
NUMBER	NUM	B-noun.group
people	NOUN	I-noun.group
via	ADP	O
URL	NOUN	B-noun.communication

@USER	NOUN	B-noun.person
:	.	O
Evolving	ADJ	O
world	NOUN	B-noun.object
of	ADP	O
BPM	NOUN	B-noun.time
|	.	O
IBM	NOUN	B-noun.location
Software	NOUN	I-noun.location
India	NOUN	I-noun.location
:	.	O
business	NOUN	B-noun.attribute
agility	NOUN	I-noun.attribute
,	.	O
BPM	NOUN	B-noun.time
,	.	O
business	NOUN	B-noun.act
process	NOUN	I-noun.act
management	NOUN	I-noun.act
,	.	O
...	.	O
URL	NOUN	B-noun.person
#	NOUN	I-noun.person
?	.	O

Today	NOUN	B-noun.person
stats	NOUN	I-noun.person
:	.	O
2	NUM	B-noun.group
followers	NOUN	I-noun.group
,	.	O
2	NUM	B-noun.person
unfollowers	NOUN	I-noun.person
and	CONJ	O
followed	VERB	B-verb.motion
NUMBER	NUM	B-noun.group
people	NOUN	I-noun.group
via	ADP	O
URL	NOUN	B-noun.communication

Today	NOUN	B-noun.person
stats	NOUN	I-noun.person
:	.	O
NUMBER	NUM	B-noun.group
followers	NOUN	I-noun.group
,	.	O
No	DET	O
unfollowers	NOUN	B-noun.person
via	ADP	O
URL	NOUN	B-noun.communication

@USER	NOUN	B-noun.person
:	.	O
for	ADP	O
a	DET	O
chance	NOUN	B-noun.state
to	ADP	O
win	VERB	B-verb.competition
2	NUM	B-noun.communication
tickets	NOUN	I-noun.communication
to	ADP	O
the	DET	O
@USER	NOUN	B-noun.time
Art	NOUN	I-noun.time
Launch	NOUN	I-noun.time
Party	NOUN	I-noun.time
tomorrow	NOUN	I-noun.time
!	.	O
More	DET	O
info	NOUN	B-noun.communication
-	.	O
URL	NOUN	B-noun.communication

There	PRON	O
are	VERB	B-verb.stative
some	DET	O
constraints	NOUN	B-noun.state
as	ADP	O
to	ADP	O
how	ADV	O
high	ADJ	O
or	CONJ	O
how	ADV	O
low	ADJ	O
you	PRON	O
can	VERB	B-verb.change
set	VERB	B-verb.contact
your	DET	O
price	NOUN	B-noun.attribute
when	ADV	O
posting	VERB	B-verb.contact
your	DET	O
bid	NOUN	B-noun.communication
.	.	O
URL	NOUN	B-noun.communication

Radio	NOUN	B-noun.person
NUMBER	NUM	I-noun.person
Darkside	NOUN	I-noun.person
Teaser	NOUN	I-noun.person
:	.	O
URL	NOUN	B-noun.communication
via	ADP	O
@USER	NOUN	B-noun.time
NUMBER	NUM	I-noun.time
years	NOUN	I-noun.time
ago	ADV	O
!	.	O
Timeless	ADJ	O
.	.	O

Today	NOUN	B-noun.person
stats	NOUN	I-noun.person
:	.	O
One	NUM	B-noun.person
follower	NOUN	I-noun.person
,	.	O
No	DET	O
unfollowers	NOUN	B-noun.person
via	ADP	O
URL	NOUN	B-noun.communication

"	.	O
Weird	ADJ	O
seaside	ADJ	O
accessories	NOUN	B-noun.artifact
-	.	O
Telegraph	NOUN	B-noun.artifact
"	.	O
URL	NOUN	B-noun.communication

Music	NOUN	B-noun.artifact
Think	NOUN	I-noun.artifact
Tank	NOUN	I-noun.artifact
-	.	O
How	ADV	O
To	ADP	O
Make	VERB	B-verb.social
It	PRON	O
In	ADP	O
The	DET	O
Music	NOUN	B-noun.group
Industry	NOUN	I-noun.group
-	.	O
4	NUM	B-noun.quantity
Key	NOUN	B-noun.artifact
Factors	NOUN	B-noun.event
URL	NOUN	B-noun.communication

NSA	NOUN	B-noun.object
agents	NOUN	I-noun.object
spied	VERB	B-verb.perception
on	ADP	O
their	DET	O
love	NOUN	B-noun.cognition
interests	NOUN	I-noun.cognition
under	ADP	O
a	DET	O
program	NOUN	B-noun.cognition
called	VERB	B-verb.communication
"	.	O
LOVEINT	NOUN	B-noun.person
"	.	O
URL	NOUN	B-noun.communication

NUMBER	NUM	B-noun.attribute
top	ADJ	O
theme	NOUN	B-noun.person
parks	NOUN	I-noun.person
opening	VERB	B-verb.contact
soon	ADV	O
URL	NOUN	B-noun.communication

@USER	NOUN	B-noun.person
:	.	O
Lady	NOUN	B-noun.person
Gaga	NOUN	I-noun.person
talking	VERB	B-verb.communication
to	ADP	O
the	DET	O
boys	NOUN	B-noun.person
after	ADP	O
they	PRON	O
won	VERB	B-verb.competition
the	DET	O
award	NOUN	B-noun.act
,	.	O
gotta	VERB	O
love	VERB	B-verb.emotion
her	PRON	O
.	.	O
URL	NOUN	B-noun.communication
?	.	O

NUMBER	NUM	B-noun.person
Chevy	NOUN	I-noun.person
Lumina-	NOUN	I-noun.person
Rare	ADJ	O
NUMBER	NUM	B-noun.person
Package-	NOUN	I-noun.person
Recaro	NOUN	I-noun.person
Seats-	NOUN	I-noun.person
NUMBER	NUM	I-noun.person
v6-	NOUN	I-noun.person
NUMBER	NUM	I-noun.person
obo	NOUN	I-noun.person
(	.	O
yopungstown	NOUN	B-noun.person
)	.	O
NUMBER	NUM	B-noun.attribute
URL	NOUN	B-noun.communication

I	PRON	O
posted	VERB	B-verb.contact
a	DET	O
new	ADJ	O
photo	NOUN	B-noun.artifact
to	ADP	O
Facebook	NOUN	B-noun.person
URL	NOUN	B-noun.communication

NUMBER	NUM	B-noun.attribute
Girly	ADJ	O
School	NOUN	B-noun.quantity
Supplies	NOUN	I-noun.quantity
From	ADP	O
Your	DET	O
Childhood	NOUN	B-noun.time
You	PRON	O
Maybe	ADV	O
Still	ADV	O
Want	VERB	B-verb.emotion
URL	NOUN	B-noun.communication

@USER	NOUN	B-noun.person
:	.	O
Traits	NOUN	B-noun.attribute
of	ADP	O
Autism	NOUN	B-noun.cognition
Seen	VERB	B-verb.perception
in	ADP	O
Some	DET	O
Kids	NOUN	B-noun.person
with	ADP	O
ADHD	NOUN	B-noun.state
URL	NOUN	B-noun.communication

When	ADV	O
I	PRON	O
grow	VERB	B-verb.change
up	PRT	O
,	.	O
I	PRON	O
want	VERB	B-verb.emotion
to	ADP	O
...	.	O
URL	NOUN	B-noun.communication
from	ADP	O
Seth	NOUN	B-noun.person
Godin	NOUN	I-noun.person
.	.	O
You	PRON	O
don't	VERB	O
need	VERB	B-verb.stative
to	ADP	O
boil	VERB	B-verb.change
the	DET	O
ocean	NOUN	B-noun.object
to	ADP	O
change	VERB	B-verb.change
the	DET	O
world	NOUN	B-noun.object
for	ADP	O
the	DET	O
better	ADJ	O
.	.	O

Nube	NOUN	B-noun.person
NUMBER	NUM	I-noun.person
@USER	NOUN	I-noun.person
the	DET	O
Philarmonic	NOUN	B-noun.person
of	ADP	O
Liverpool	NOUN	B-noun.location
-	.	O
homage	NOUN	B-noun.act
to	ADP	O
George	NOUN	B-noun.person
.	.	O
URL	NOUN	B-noun.communication

I	PRON	O
posted	VERB	B-verb.contact
a	DET	O
new	ADJ	O
photo	NOUN	B-noun.artifact
to	ADP	O
Facebook	NOUN	B-noun.person
URL	NOUN	B-noun.communication

NUMBER	NUM	B-noun.person
Technology	NOUN	I-noun.person
Award	NOUN	I-noun.person
Winners	NOUN	I-noun.person
Announced	VERB	B-verb.communication
by	ADP	O
International	NOUN	B-noun.attribute
NUMBER	NUM	I-noun.attribute
&	CONJ	O
Advanced	NOUN	B-noun.person
Imaging	NOUN	B-noun.cognition
Society	NOUN	B-noun.group
URL	NOUN	B-noun.communication

Does	VERB	B-verb.social
Evil	NOUN	B-noun.act
ever	ADV	O
really	ADV	O
sleep	VERB	B-verb.body
?	.	O
Or	CONJ	O
does	VERB	B-verb.social
it	PRON	O
just	ADV	O
wait	VERB	B-verb.stative
?	.	O
#kiramorgana	NOUN	B-noun.person
#TTATE	NOUN	I-noun.person
-	.	O
URL	NOUN	B-noun.communication

NEW	ADJ	O
POST	NOUN	B-noun.location
:	.	O
More	ADJ	O
than	ADP	O
NUMBER	NUM	B-noun.communication
vintage	NOUN	I-noun.communication
ads	NOUN	I-noun.communication
at	ADP	O
your	DET	O
fingertips	NOUN	B-noun.body
URL	NOUN	B-noun.communication
#vintage	NOUN	B-noun.person

I	PRON	O
posted	VERB	B-verb.contact
a	DET	O
new	ADJ	O
photo	NOUN	B-noun.artifact
to	ADP	O
Facebook	NOUN	B-noun.person
URL	NOUN	B-noun.communication

Japan	NOUN	B-noun.group
school	NOUN	I-noun.group
board	NOUN	I-noun.group
bows	VERB	B-verb.communication
to	ADP	O
outcry	NOUN	B-noun.communication
,	VERB	O
drops	VERB	B-verb.motion
curbs	NOUN	B-noun.artifact
on	ADP	O
anti-war	ADJ	O
comic	NOUN	B-noun.person
URL	NOUN	B-noun.communication
#health	NOUN	B-noun.person
#living	NOUN	B-noun.person

NUMBER	NUM	B-noun.quantity
MILLION	NOUN	I-noun.quantity
Mega	ADJ	O
Millions	NOUN	B-noun.possession
Jackpot	NOUN	I-noun.possession
this	DET	O
Tuesday	NOUN	B-noun.time
,	.	O
NUMBER	NUM	B-noun.attribute
Aug	NOUN	I-noun.attribute
NUMBER	NUM	I-noun.attribute
!	.	O
Find	VERB	B-verb.possession
out	PRT	O
how	ADV	O
to	ADP	O
win	VERB	B-verb.competition
it	PRON	O
:	.	O
URL	NOUN	B-noun.communication

Antique	ADJ	O
ROYAL	NOUN	B-noun.cognition
BAYREUTH	NOUN	I-noun.cognition
Sun-Bonnet	NOUN	I-noun.cognition
Babies	NOUN	I-noun.cognition
Blue	NOUN	I-noun.cognition
Mark	NOUN	I-noun.cognition
sewing	VERB	B-verb.contact
/	.	O
Mending	VERB	B-verb.change
/	.	O
Wednesday	NOUN	B-noun.time
NUMBER	NUM	B-noun.attribute
URL	NOUN	B-noun.communication
#plates	NOUN	B-noun.person

Don't	VERB	O
forget	VERB	B-verb.cognition
to	ADP	O
get	VERB	B-verb.possession
your	DET	O
Atlanta	NOUN	B-noun.artifact
Beagle	NOUN	I-noun.artifact
Rescue	NOUN	I-noun.artifact
gear	NOUN	I-noun.artifact
!	.	O
URL	NOUN	B-noun.communication
URL	NOUN	B-noun.communication

Don	VERB	B-verb.body
?	.	O
t	VERB	O
get	VERB	B-verb.possession
lost	ADJ	O
in	ADP	O
a	DET	O
business	NOUN	B-noun.communication
book	NOUN	I-noun.communication
.	.	O
Learn	VERB	B-verb.cognition
how	ADV	O
to	ADP	O
work	VERB	B-verb.social
smarter	ADV	O
and	CONJ	O
live	VERB	B-verb.stative
better	ADV	O
here	ADV	O
at	ADP	O
#ExpertsEnterprise	NOUN	B-noun.person
URL	NOUN	B-noun.communication

Guzan	NOUN	B-noun.person
:	.	O
Villa	NOUN	B-noun.person
massively	ADV	O
different	ADJ	O
this	DET	O
season	NOUN	B-noun.time
URL	NOUN	B-noun.communication

Soccer	NOUN	B-noun.communication
news	NOUN	I-noun.communication
:	.	O
RODGERS	NOUN	B-noun.person
:	.	O
ENGLAND	NOUN	B-noun.location
ARE	VERB	B-verb.stative
LUCKY	ADJ	O
TO	ADP	O
HAVE	VERB	B-verb.possession
STURRIDGE	NOUN	B-noun.person
URL	NOUN	B-noun.communication
#SoccerNews	NOUN	B-noun.person
#soccer	NOUN	B-noun.person
#fifa	NOUN	B-noun.person
#soccer	NOUN	B-noun.person
#football	NOUN	B-noun.person

'	.	O
Favstar/top-50-funny	ADJ	O
'	.	O
news	NOUN	B-noun.communication
URL	NOUN	I-noun.communication
-	.	O
top	ADJ	O
stories	NOUN	B-noun.communication
by	ADP	O
BestofTheWorsti	NOUN	B-noun.person
,	.	O
ItsGuiRodrigues	NOUN	B-noun.person
,	.	O
AlberttoLicona	NOUN	B-noun.person

You	PRON	O
and	CONJ	O
jack	NOUN	B-noun.quantity
should	VERB	O
get	VERB	B-verb.possession
married	VERB	B-verb.social
already	ADV	O
.	.	O
I'll	VERB	O
plan	VERB	B-verb.cognition
it	PRON	O
.	.	O
?	.	O
trip	NOUN	B-noun.act
to	ADP	O
michigan	NOUN	B-noun.location
URL	NOUN	B-noun.communication

#NowPlaying	NOUN	B-noun.person
Do	VERB	B-verb.social
You	PRON	O
...	.	O
by	ADP	O
Miguel	NOUN	B-noun.person
on	ADP	O
#Spotify	NOUN	B-noun.person
Do	VERB	B-verb.social
you	PRON	O
like	VERB	B-verb.emotion
drugs	NOUN	B-noun.artifact
?	.	O
Yeah	X	O
?	.	O
well	X	O
me	PRON	O
too	ADV	O
?	.	O
URL	NOUN	B-noun.communication

***	.	O
#CCC	NOUN	B-noun.animal
Butterfly	NOUN	I-noun.animal
?????	.	O
Asks	VERB	B-verb.communication
........	.	O
WHAT	PRON	O
AM	VERB	B-verb.stative
I	PRON	O
????	.	O
***	.	O
Riddle	VERB	B-verb.contact
me	PRON	O
this	PRON	O
,	.	O
Riddle	VERB	B-verb.contact
me	PRON	O
that	PRON	O
A	DET	O
Quiz	NOUN	B-noun.communication
for	ADP	O
you	PRON	O
,	.	O
so	X	O
get	VERB	B-verb.possession
on	ADP	O
...	.	O
URL	NOUN	B-noun.communication

Post	ADJ	O
match	NOUN	B-noun.communication
interview	NOUN	I-noun.communication
with	ADP	O
Kraigg	NOUN	B-noun.person
Brathwaite	NOUN	B-noun.person
URL	NOUN	B-noun.communication

Have	VERB	B-verb.possession
you	PRON	O
tried	VERB	B-verb.social
our	DET	O
Spicy	ADJ	O
Tako	NOUN	B-noun.food
Salad	NOUN	I-noun.food
?	.	O
It's	VERB	O
marinated	ADJ	O
octopus	NOUN	B-noun.food
over	ADP	O
a	DET	O
bed	NOUN	B-noun.artifact
of	ADP	O
cucumber	NOUN	B-noun.food
salad	NOUN	I-noun.food
.	.	O
Served	VERB	B-verb.stative
with	ADP	O
ponzu	NOUN	B-noun.food
sauce	NOUN	I-noun.food
...	.	O
URL	NOUN	B-noun.communication

lack	NOUN	B-noun.state
of	ADP	O
accurate	ADJ	O
climate	NOUN	B-noun.cognition
models	NOUN	I-noun.cognition
should	VERB	O
not	ADV	O
dissuade	VERB	B-verb.communication
countries	NOUN	B-noun.group
from	ADP	O
choosing	VERB	B-verb.cognition
best	ADJ	O
ways	NOUN	B-noun.artifact
to	ADP	O
adapt	VERB	B-verb.change
to	ADP	O
changing	VERB	B-verb.change
climate	NOUN	B-noun.state
URL	NOUN	B-noun.communication

@USER	NOUN	B-noun.person
:	.	O
Breaking	ADJ	O
News	NOUN	B-noun.communication
:	.	O
Social	NOUN	B-noun.attribute
Media	NOUN	I-noun.attribute
NUMBER	NUM	I-noun.attribute
is	VERB	B-verb.stative
out	ADV	O
!	.	O
URL	NOUN	B-noun.communication
?	.	O
?	.	O
Top	ADJ	O
stories	NOUN	B-noun.communication
today	ADV	O
via	ADP	O
@USER	NOUN	B-noun.person
@USER	NOUN	B-noun.person

The	DET	O
Secret	NOUN	B-noun.communication
To	ADP	O
A	DET	O
Perfect	ADJ	O
Sandwich	NOUN	B-noun.food
URL	NOUN	B-noun.communication

I	PRON	O
posted	VERB	B-verb.contact
a	DET	O
new	ADJ	O
photo	NOUN	B-noun.artifact
to	ADP	O
Facebook	NOUN	B-noun.person
URL	NOUN	B-noun.communication

Bendtner	NOUN	B-noun.person
could	VERB	O
not	ADV	O
hit	VERB	B-verb.contact
a	DET	O
Cows	NOUN	B-noun.body
Arse	NOUN	I-noun.body
with	ADP	O
a	DET	O
cricket	NOUN	B-noun.animal
bat	NOUN	I-noun.animal
!!	.	O
No	PRT	O
Albion	NOUN	B-noun.location
No	PRT	O
,	.	O
Im	VERB	O
available	ADJ	O
at	ADP	O
NUMBER	NUM	B-noun.person
FFS	NOUN	I-noun.person
.	.	O
#WBAFC	NOUN	B-noun.person
#Baggiee	NOUN	B-noun.person
URL	NOUN	B-noun.communication

Build	VERB	B-verb.creation
a	DET	O
bear	NOUN	B-noun.artifact
workshop	NOUN	I-noun.artifact
,	.	O
Avenues	NOUN	B-noun.act
:	.	O
Loving	VERB	B-verb.emotion
the	DET	O
build	VERB	B-verb.creation
a	DET	O
bear	NOUN	B-noun.artifact
workshop	NOUN	I-noun.artifact
!	.	O
What	PRON	O
a	DET	O
fabulous	ADJ	O
idea	NOUN	B-noun.cognition
.	.	O
The	DET	O
post	NOUN	B-noun.person
Bui	NOUN	I-noun.person
?	.	O
URL	NOUN	B-noun.communication

European	ADJ	O
Study	NOUN	B-noun.act
Finds	VERB	B-verb.possession
Megaupload	NOUN	B-noun.act
Closure	NOUN	I-noun.act
Helped	VERB	B-verb.social
Blockbusters	NOUN	B-noun.artifact
,	.	O
Hurt	VERB	B-verb.perception
Smaller	ADJ	O
Pics	NOUN	B-noun.communication
:	.	O
Researchers	NOUN	B-noun.person
from	ADP	O
the	DET	O
Munich	NOUN	B-noun.substance
Sc	NOUN	I-noun.substance
...	.	O
URL	NOUN	B-noun.communication

Interview	NOUN	B-noun.communication
:	.	O
Brodus	NOUN	B-noun.communication
Clay	NOUN	I-noun.communication
URL	NOUN	I-noun.communication
No	DET	O
One	NOUN	B-noun.quantity
Lives	VERB	B-verb.stative
actor/WWE	NOUN	B-noun.person
Superstar	NOUN	I-noun.person
chats	VERB	B-verb.communication
about	ADP	O
differences	NOUN	B-noun.attribute
between	ADP	O
horror/wresting	NOUN	B-noun.group
crowds	NOUN	I-noun.group
&	CONJ	O
more	NOUN	B-noun.person

#Gambling	NOUN	B-noun.person
#APP	NOUN	I-noun.person
simply	ADV	O
the	DET	O
best	ADJ	O
FREE	ADJ	O
app	NOUN	B-noun.person
covering	VERB	B-verb.contact
all	DET	O
top	ADJ	O
bookies	NOUN	B-noun.person
.	.	O
iphone	NOUN	B-noun.person
go	VERB	B-verb.motion
to	ADP	O
URL	NOUN	B-noun.person
ipad	NOUN	I-noun.person
...	.	O
URL	NOUN	B-noun.communication

WELSH	ADJ	O
DRAGON	NOUN	B-noun.person
FOUND	VERB	B-verb.social
:	.	O
URL	NOUN	B-noun.communication
via	ADP	O
@USER	NOUN	B-noun.person

Who	PRON	O
Is	VERB	B-verb.stative
Missing	VERB	B-verb.perception
From	ADP	O
Danity	NOUN	B-noun.group
Kane's	NOUN	I-noun.group
Video	NOUN	I-noun.group
Music	NOUN	I-noun.group
Awards	NOUN	I-noun.group
Reunion	NOUN	I-noun.group
?	.	O
URL	NOUN	B-noun.communication

Date	NOUN	B-noun.time
agreed	VERB	B-verb.communication
for	ADP	O
referendum	NOUN	B-noun.act
purdah	NOUN	B-noun.state
URL	NOUN	B-noun.communication

Global	ADJ	O
Analysis	NOUN	B-noun.act
of	ADP	O
the	DET	O
Automotive	NOUN	B-noun.person
Refinish	NOUN	B-noun.person
Coatings	NOUN	B-noun.artifact
Market	NOUN	B-noun.act
URL	NOUN	B-noun.communication

I'm	VERB	O
sharing	VERB	B-verb.stative
my	DET	O
favorite	ADJ	O
blueberry	NOUN	B-noun.time
muffin	NOUN	I-noun.time
recipe	NOUN	I-noun.time
today	NOUN	I-noun.time
.	.	O
URL	NOUN	B-noun.communication
URL	NOUN	B-noun.communication

GMC/Chevy/Hummer/Buick/Saturn/	NOUN	B-noun.person
Flyaudio	NOUN	I-noun.person
GPS/DVD/IPOD/BT/USB/RADIO/AV	NOUN	I-noun.person
/Navigation	NOUN	I-noun.person
:	.	O
NUMBER	NUM	B-noun.attribute
(	.	O
NUMBER	NUM	B-noun.communication
Bids	NOUN	I-noun.communication
)	.	O
End	NOUN	B-noun.time
Date	NOUN	I-noun.time
:	.	O
...	.	O
URL	NOUN	B-noun.communication

aaaaaaaaaaaaaaaaaaaaaaaaaaaaaaaaaaaahhhhh	X	O
!!!!!!!!!!	.	O
?	.	O
Nothing	NOUN	B-noun.quantity
to	ADP	O
Say	VERB	B-verb.communication
?	.	O
Angra	NOUN	B-noun.person
URL	NOUN	B-noun.communication
#NowPlaying	NOUN	B-noun.person

[	.	O
SEP	NOUN	B-noun.quantity
2	NUM	I-noun.quantity
]	.	O
@USER	NOUN	B-noun.person
presents	VERB	B-verb.perception
exclusive	ADJ	O
Listening	NOUN	B-noun.communication
Session	NOUN	I-noun.communication
w/	ADP	O
@USER	NOUN	B-noun.person
4	ADP	O
Music	NOUN	B-noun.time
Monday	NOUN	I-noun.time
.	.	O
RSVP	VERB	O
TODAY	NOUN	B-noun.time
|	.	O
Details	NOUN	B-noun.communication
@USER	NOUN	B-noun.person
URL	NOUN	B-noun.communication

National	NOUN	B-noun.group
Dance	NOUN	I-noun.group
Day	NOUN	I-noun.group
NUMBER	NUM	I-noun.group
Instructional	NOUN	I-noun.group
Master	NOUN	I-noun.group
Class	NOUN	I-noun.group
-	.	O
Mirrored	ADJ	O
and	CONJ	O
Slow	ADJ	O
*	.	O
...	.	O
:	.	O
URL	NOUN	B-noun.communication
via	ADP	O
@USER	NOUN	B-noun.person

Fake	ADJ	O
Shemales	NOUN	B-noun.person
in	ADP	O
Pantyhose	NOUN	B-noun.artifact
#porn	NOUN	B-noun.person
#sexy	NOUN	B-noun.person
#xxx	NOUN	B-noun.person
#adult	NOUN	B-noun.person
#amateur	NOUN	B-noun.person
#nsfw	NOUN	B-noun.person
#shemales	NOUN	B-noun.person
#pantyhose	NOUN	B-noun.person
URL	NOUN	B-noun.communication

#Redgage	NOUN	B-noun.person
Save	VERB	B-verb.social
#water	NOUN	B-noun.person
while	ADP	O
#washing	NOUN	B-noun.person
your	DET	O
#vehicles	NOUN	B-noun.person
#Photo	NOUN	B-noun.person
URL	NOUN	B-noun.communication

One	NOUN	B-noun.time
Dress	NOUN	I-noun.time
a	NOUN	I-noun.time
Day	NOUN	I-noun.time
Exclusive	ADJ	O
:	.	O
Liverpool	NOUN	B-noun.location
Dress	NOUN	B-noun.artifact
URL	NOUN	B-noun.communication

Welcome	VERB	B-verb.possession
Home	NOUN	B-noun.communication
URL	NOUN	I-noun.communication
via	ADP	O
@USER	NOUN	B-noun.substance
Liz	NOUN	I-noun.substance
W	NOUN	I-noun.substance
is	VERB	B-verb.stative
back	ADV	O
@USER	NOUN	B-noun.person
Davidson	NOUN	B-noun.person

NUMBER	NUM	B-noun.motive
Reasons	NOUN	I-noun.motive
Your	DET	O
Job	NOUN	B-noun.act
Search	NOUN	I-noun.act
is	VERB	B-verb.stative
Falling	VERB	B-verb.motion
Flat	PRT	O
|	.	O
Resume	VERB	B-verb.change
Companion	NOUN	B-noun.person
URL	NOUN	B-noun.communication

yu	PRON	O
a	DET	O
bitch	NOUN	B-noun.state
2	ADV	O
?	.	O
gladly	ADJ	O
to	ADP	O
kno	VERB	O
that	ADP	O
im	VERB	O
on	ADP	O
your	PRON	O
mind	NOUN	B-noun.cognition
&	CONJ	O
you	PRON	O
think	VERB	B-verb.cognition
of	ADP	O
me	PRON	O
like	VERB	B-verb.emotion
that	DET	O
!!!!	.	O
URL	NOUN	B-noun.communication

I	PRON	O
posted	VERB	B-verb.contact
a	DET	O
new	ADJ	O
photo	NOUN	B-noun.artifact
to	ADP	O
Facebook	NOUN	B-noun.person
URL	NOUN	B-noun.communication

Leicester	NOUN	B-noun.location
City	NOUN	I-noun.location
v	ADP	O
Liverpool	NOUN	B-noun.location
~	.	O
Premier	NOUN	B-noun.group
League	NOUN	I-noun.group
~	.	O
NUMBER	NUM	B-noun.attribute
:	.	O
NUMBER	NUM	B-noun.time
End	NOUN	I-noun.time
Date	NOUN	I-noun.time
:	.	O
Wednesday	NOUN	B-noun.person
Sep-25-2013	NOUN	I-noun.person
NUMBER	NUM	I-noun.person
PDT	NOUN	I-noun.person
Buy	VERB	B-verb.possession
It	PRON	O
...	.	O
URL	NOUN	B-noun.communication

I	PRON	O
liked	VERB	B-verb.emotion
a	DET	O
@USER	NOUN	B-noun.communication
video	NOUN	I-noun.communication
from	ADP	O
@USER	NOUN	B-noun.location
URL	NOUN	I-noun.location
Cedar	NOUN	I-noun.location
Park	NOUN	I-noun.location
Receives	VERB	B-verb.possession
the	DET	O
Lone	NOUN	B-noun.person
Star	NOUN	B-noun.object
Cup	NOUN	B-noun.artifact

Soccer	NOUN	B-noun.communication
news	NOUN	I-noun.communication
:	.	O
COOL	ADJ	O
SOCCER	NOUN	B-noun.act
FANS	NOUN	B-noun.artifact
IMAGES	NOUN	B-noun.cognition
URL	NOUN	B-noun.communication
#SoccerFans	NOUN	B-noun.person
#soccer	NOUN	B-noun.person
#fifa	NOUN	B-noun.person
#soccer	NOUN	B-noun.person
#football	NOUN	B-noun.person

@USER	NOUN	B-noun.person
:	.	O
VMA's	NOUN	B-noun.person
Red	ADJ	O
Carpet	NOUN	B-noun.communication
Report	NOUN	I-noun.communication
:	.	O
Thirty	NUM	B-noun.time
Seconds	NOUN	I-noun.time
To	ADP	O
Mars	NOUN	B-noun.object
URL	NOUN	B-noun.communication

Joey	NOUN	B-noun.person
Bada$$	NOUN	I-noun.person
-	.	O
Killuminati	NOUN	B-noun.quantity
Pt	NOUN	I-noun.quantity
2	NUM	I-noun.quantity
"	.	O
Kendrick	NOUN	B-noun.phenomenon
Lamar	NOUN	I-noun.phenomenon
Response	NOUN	I-noun.phenomenon
"	.	O
:	.	O
URL	NOUN	B-noun.communication

Kiessling	NOUN	B-noun.person
unconcerned	VERB	O
by	ADP	O
international	ADJ	O
snub	NOUN	B-noun.communication
URL	NOUN	B-noun.communication

September	NOUN	B-noun.group
Couponing	NOUN	I-noun.group
Class	NOUN	I-noun.group
,	.	O
it's	VERB	O
an	DET	O
awesome	ADJ	O
NUMBER	NUM	B-noun.group
week	NOUN	I-noun.group
class	NOUN	I-noun.group
to	ADP	O
learn	VERB	B-verb.cognition
tips	NOUN	B-noun.location
and	CONJ	O
tricks	NOUN	B-noun.act
URL	NOUN	B-noun.communication

I	PRON	O
posted	VERB	B-verb.contact
a	DET	O
new	ADJ	O
photo	NOUN	B-noun.artifact
to	ADP	O
Facebook	NOUN	B-noun.person
URL	NOUN	B-noun.communication

Google	NOUN	B-noun.communication
?	.	O
s	NOUN	B-noun.time
local	ADJ	O
business	NOUN	B-noun.group
is	VERB	B-verb.stative
?	.	O
really	ADV	O
struggling	VERB	B-verb.social
,?	.	O
in	ADP	O
?	.	O
constant	ADJ	O
chaos	NOUN	B-noun.state
,?	.	O
Yelp	NOUN	B-noun.person
CEO	NOUN	I-noun.person
tells	VERB	B-verb.communication
Charlie	NOUN	B-noun.plant
Rose	NOUN	I-noun.plant
(	X	O
Video	NOUN	B-noun.communication
)	.	O
...	.	O
URL	NOUN	B-noun.communication

[	.	O
MUSIC	NOUN	B-noun.communication
]	.	O
EFA	NOUN	B-noun.person
(	.	O
@USER	NOUN	B-noun.person
)	.	O
-	.	O
SUNMOBI	NOUN	B-noun.communication
PROD	NOUN	I-noun.communication
BY	ADP	O
D'TUNES	NOUN	B-noun.person
(	.	O
@USER	NOUN	B-noun.person
)	.	O
URL	NOUN	B-noun.communication

Loudoun	NOUN	B-noun.person
County	NOUN	I-noun.person
winemaker	NOUN	I-noun.person
still	ADV	O
battling	VERB	B-verb.competition
homeowner	NOUN	B-noun.group
association	NOUN	I-noun.group
,	.	O
files	VERB	B-verb.communication
bankruptcy	NOUN	B-noun.state
URL	NOUN	B-noun.communication

Even	ADV	O
the	DET	O
Deer	NOUN	B-noun.animal
Are	VERB	B-verb.stative
Polite	ADJ	O
in	ADP	O
Japan	NOUN	B-noun.location
.	.	O
(	.	O
You're	VERB	O
Kidding	VERB	B-verb.communication
,	.	O
Right	X	O
?	.	O
)	.	O
:	.	O
Just	ADV	O
look	VERB	B-verb.perception
how	ADV	O
this	DET	O
deer	NOUN	B-noun.animal
bows	VERB	B-verb.communication
.	.	O
These	DET	O
Japanese	ADJ	O
deer	NOUN	B-noun.animal
...	.	O
URL	NOUN	B-noun.communication

Win	VERB	B-verb.competition
a	DET	O
NUMBER	NUM	B-noun.artifact
Visa	NOUN	I-noun.artifact
Gift	NOUN	I-noun.artifact
Card	NOUN	I-noun.artifact
from	ADP	O
@USER	NOUN	B-noun.person
and	CONJ	O
@USER	NOUN	B-noun.person
#giveaway	NOUN	B-noun.person
URL	NOUN	B-noun.communication

Apple's	NOUN	B-noun.person
'	.	O
iPhone	NOUN	B-noun.attribute
NUMBER	NUM	I-noun.attribute
'	.	O
to	ADP	O
use	VERB	B-verb.consumption
NUMBER	NUM	B-noun.attribute
faster	ADV	O
'	.	O
A7	NOUN	B-noun.person
'	.	O
chip	NOUN	B-noun.object
,	.	O
feature	NOUN	B-noun.act
motion	NOUN	I-noun.act
tracking	NOUN	I-noun.act
-	.	O
report	VERB	B-verb.communication
-	.	O
Apple	NOUN	B-noun.food
Insider	NOUN	B-noun.person
URL	NOUN	B-noun.communication

Hearts	NOUN	B-noun.artifact
fan	NOUN	I-noun.artifact
offers	VERB	B-verb.possession
cash	NOUN	B-noun.possession
for	ADP	O
appeal	NOUN	B-noun.communication
URL	NOUN	B-noun.communication

Online	ADJ	O
CRM	NOUN	B-noun.artifact
system	NOUN	I-noun.artifact
and	CONJ	O
your	DET	O
business	NOUN	B-noun.group
-	.	O
URL	NOUN	B-noun.communication
URL	NOUN	B-noun.communication

How	ADV	O
late	ADJ	O
did	VERB	B-verb.social
you	PRON	O
stay	VERB	B-verb.change
up	PRT	O
last	ADJ	O
night	NOUN	B-noun.time
and	CONJ	O
why	ADV	O
?	.	O
-	.	O
Idk	VERB	O
and	CONJ	O
cuz	ADP	O
fell	VERB	B-verb.contact
asleep	ADJ	O
.	.	O
URL	NOUN	B-noun.communication

Lenny	NOUN	B-noun.person
Bonsignore	NOUN	I-noun.person
:	.	O
My	DET	O
Windows	NOUN	B-noun.communication
crap	NOUN	B-noun.substance
Phone	NOUN	B-noun.artifact
NUMBER	NUM	B-noun.attribute
Start	NOUN	B-noun.event
Screen	NOUN	B-noun.artifact
URL	NOUN	B-noun.communication

@USER	NOUN	B-noun.person
:	.	O
Egyptians	NOUN	B-noun.person
Not	ADV	O
Buying	VERB	B-verb.possession
Muslim	ADJ	O
Brotherhood's	NOUN	B-noun.person
Christian	NOUN	B-noun.person
Scapegoating	NOUN	B-noun.person
URL	NOUN	B-noun.communication

Ballina	NOUN	B-noun.group
Expo	NOUN	I-noun.group
for	ADP	O
unemployed	NOUN	B-noun.group
.	.	O
URL	NOUN	B-noun.communication

Accountant	NOUN	B-noun.person
with	ADP	O
Tally	NOUN	B-noun.act
/	.	O
peachtree	NOUN	B-noun.cognition
experience	NOUN	I-noun.cognition
-	.	O
#Qatar	NOUN	B-noun.person
#Jobs	NOUN	B-noun.person
URL	NOUN	B-noun.communication

Temazo	NOUN	B-noun.person
!	.	O
?	.	O
Wake	VERB	B-verb.body
Me	PRON	O
Up	PRT	O
-	.	O
Radio	NOUN	B-noun.person
Edit	NOUN	I-noun.person
?	.	O
Avicii	NOUN	B-noun.person
URL	NOUN	B-noun.communication
#NowPlaying	NOUN	B-noun.person

#Beachparty	NOUN	B-noun.person
tonight	ADV	O
Ladies	NOUN	B-noun.person
?	.	O
Put	VERB	B-verb.contact
on	ADP	O
your	DET	O
Animagical	ADJ	O
#Fragrance	NOUN	B-noun.person
and	CONJ	O
go	VERB	B-verb.motion
wild	ADV	O
!	.	O
URL	NOUN	B-noun.communication
URL	NOUN	B-noun.communication

Why	ADV	O
Touch	NOUN	B-noun.artifact
Screens	NOUN	I-noun.artifact
Will	VERB	B-verb.communication
Not	ADV	O
Take	VERB	B-verb.social
Over	PRT	O
:	.	O
Scientific	ADJ	O
American	NOUN	B-noun.communication
URL	NOUN	I-noun.communication
via	ADP	O
@USER	NOUN	B-noun.person

NUMBER	NUM	B-noun.artifact
Hudson	NOUN	I-noun.artifact
Sedan	NOUN	I-noun.artifact
-	.	O
Original	ADJ	O
&	CONJ	O
Very	ADV	O
Rare	ADJ	O
(	.	O
Billings	NOUN	B-noun.location
,	.	O
MT	NOUN	B-noun.attribute
NUMBER	NUM	I-noun.attribute
)	.	O
NUMBER	NUM	B-noun.attribute
URL	NOUN	B-noun.communication

NUMBER	NUM	B-noun.attribute
Indian	ADJ	O
fishermen	NOUN	B-noun.person
arrested	VERB	B-verb.contact
off	ADP	O
Sri	NOUN	B-noun.object
Lanka's	NOUN	I-noun.object
west	NOUN	I-noun.object
coast	NOUN	I-noun.object
-	.	O
Business	NOUN	B-noun.group
Standard	NOUN	B-noun.communication
URL	NOUN	B-noun.communication

"	.	O
Neither	DET	O
party	NOUN	B-noun.group
gets	VERB	B-verb.possession
what's	VERB	O
coming	VERB	B-verb.motion
down	PRT	O
the	DET	O
pike	NOUN	B-noun.artifact
"	.	O
--	.	O
Democrat	NOUN	B-noun.person
Michelle	NOUN	I-noun.person
Diggles	NOUN	I-noun.person
of	ADP	O
@USER	NOUN	B-noun.person
#Millennials	NOUN	B-noun.person
URL	NOUN	B-noun.communication

Check	VERB	B-verb.cognition
out	PRT	O
our	DET	O
new	ADJ	O
,	.	O
easy	ADJ	O
to	ADP	O
use	VERB	B-verb.consumption
,	.	O
video	NOUN	B-noun.location
submission	NOUN	I-noun.location
area	NOUN	I-noun.location
!	.	O
URL	NOUN	B-noun.person
#MaxIt	NOUN	I-noun.person
#indie	NOUN	I-noun.person
We	PRON	O
love	VERB	B-verb.emotion
getting	VERB	B-verb.possession
to	ADP	O
word	VERB	B-verb.communication
out	PRT	O
about	ADP	O
ur	DET	O
#indies	NOUN	B-noun.person
!	.	O

Oh	X	O
stahp	VERB	O
it	PRON	O
,	.	O
you	PRON	O
URL	NOUN	B-noun.communication

LIVE	VERB	B-verb.stative
:	.	O
Syria	NOUN	B-noun.location
:	.	O
UN	NOUN	B-noun.group
inspectors	NOUN	B-noun.person
attacked	VERB	B-verb.competition
by	ADP	O
snipers	NOUN	B-noun.person
-	X	O
latest	ADJ	O
news	NOUN	B-noun.communication
URL	NOUN	B-noun.communication
via	ADP	O
@USER	NOUN	B-noun.person

