Die
Waren
sind
im
Vergleich
sehr
günstig
und
werden
grundsätzlich
schnell
versendet
.

Doch
letzte
Woche
als
ich
diese
reklamierte
,
kam
schon
nach
0
Tagen
eine
neue
.

Mit
meiner
Kaufentscheidung
bei
Koch
!

Aber
das
scheint
nicht
der
Fall
zu
sein
.

Obwohl
der
Ofen
in
der
Wohnstube
steht
und
auf
andere
Reklamationen
wie
Klemmen
der
Tür
wird
gar
nicht
reagiert
.

Wenn
man
herr
Grunow
mal
erreicht
beschwichtigt
er
einen
immer
mit
den
selben
Aussagen
das
morgen
die
Überweisung
rausgeht
usw
....

Zu
den
üblichen
Zeiten
einen
Film
anzusehen
ist
fast
unmöglich
.

I
am
absolutely
happy
with
the
service
.

Die
Ware
war
Blitzschnell
da
!

Am
Mittwoch
Ware
bestellt
und
ein
Artikel
war
während
des
Einkaufs
vergriffen
,
kommt
vor
...

Mütze
rechnen
kann
.

Gute
Qwalli
,
schnelle
Lieferung
freundlicher
Lieferant
.

Die
Preise
sind
auch
sehr
überteuert
...

Ich
bin
der
Empfehlung
,
die
Schuhe
eine
Nummer
größer
zu
bestellen
,
gefolgt
und
voila
:
Der
Sneaker
sitzt
wie
angegossen
.

Selbst
die
Sendungsverfolgung
hat
funktioniert
.

Ich
kann
mmoga
.
de
einfach
nur
weiter
empfehlen
!

Wie
gesagt
schnell
unverbindlic
gut

ein
kompletter
pc
sollte
es
sein
und
wurde
auch
schnellst
möglich
geliefert
(
bis
auf
die
festplatte
welche
aber
auch
im
shop
als
später
verfügbar
gekennzeichnet
war
und
trozdem
einen
tag
nach
dem
vorrausichtlichen
verfügbarkeitsdatum
bei
mir
war
)

Mein
Anwalt
schüttelt
nur
den
Kopf
über
so
ein
Vorgehen
-
das
ist
schon
richtig
dreist
.

Eigentlich
traurig
aber
sonst
kommt
man
ja
garnicht
an
sein
geld
.

0
Minuten
nach
der
bestellung
kam
schon
die
Ware
an
.

Nach
so
viel
TV
Werbung
habe
ich
mir
gedacht
das
ich
hier
einen
Schuh
bestellen
kann
...

Klare
Weiterempfehlung
des
Shops
.

Ich
schicke
jetzt
alle
paar
Tage
eine
neue
Anfrage
an
*@
capking
.
de
und
*@
capking
.
de
,
ohne
eine
Antwort
zu
erhalten
.

Wenn
man
sein
Gepäck
abgeholt
hat
,
begibt
man
sich
zum
nächstgelegenen
Fahrstuhl
.

Service
und
Lieferzeit
lassen
zu
wünschen
übrig
!

Key
hat
auch
bestens
funktioniert
beim
ersten
mal
.

Schnell
günistig
sehr
toll
!

Die
Beschreibung
vom
Anbieter
!

Ich
habe
bei
Weltbild
bestellt
weil
die
die
einzigen
sind
meine
Bücher
noch
haben
und
bis
zum
00
.
00
.
0000
ausliefern
.

Voralem
aber
keine
versteckten
Kosten
wie
bei
Vistaprint
.

Habe
auch
die
Konkurenz
angeschaut
,
aber
hier
mit
Abstand
die
besten
Preise
.

zunächst
sei
mal
angedacht
-
dass
man
quasi
in
den
Paketen
keinen
Inhalt
mit
einem
Wert
haben
darf
-
die
haften
nämlich
nur
bis
0
,-
EUR
pro
kg
(
das
ist
schon
mal
nichts
,
denn
etwaige
Gerichtskosten
fallen
auch
darunter
)

Und
zwar
,
dass
sie
keine
kostenfreie
Rücksendung
anbieten
.

Mein
Geschäftspartner
hat
heute
nachgezogen
.

Kann
ich
nur
sagen
ich
bin
sehr
zu
Frieden

Habe
MB
,
CPU
,
RAM
,
GraKa
und
SSD
bestellt
.

Als
ich
das
Paket
geöffnet
habe
war
ich
sehr
zufrieden
es
waren
alle
Artikel
im
Paket
.

Und
der
Preis
stimmt
auch
.

Very
fast
and
friendly
...

Ich
denke
mehr
braucht
man
nicht
schreiben
.

Durch
das
Nighshipping
sogar
Versandkosten
gespart
.

EMPFEHLENSWERT
UND
VERTRAUENSWÜRDIG
!!

Wenn
man
dann
so
das
00te
oder
00te
Mal
gefrustet
mit
der
Familie
Abends
00
Minuten
nach
Filmstart
das
eingefrorene
Bild
betrachtet
und
die
Fehlermeldung
kommt
ist
das
jedesmal
wieder
ein
erhebendes
Gefühl
.

Eine
Anzeige
ist
gewiss
,
aber
ob
von
so
ner
0
-
Mann
-
Firma
was
zu
holen
ist
,
ist
zweifelhaft
.

problemloser
kauf
und
aktivierung

Bin
jetzt
schon
seit
Jahren
bei
Alice
und
wirklich
unzufrieden
war
ich
nie
,
was
mich
allerdings
(
nicht
nur
bei
alice
)
immer
nervt
,
ist
,
wenn
Neukunden
die
besten
Konditionen
hinterher
geworfen
bekommen
und
ich
mit
meinem
alten
Vertrag
zahl
bis
zu
00
%
mehr
...

Mitte
September
hatte
ich
noch
keine
Lieferung
erhalten
.

Habe
0x
Palit
GTX
000
Sonntags
~
0uhr
00
.
00
.
00
bestellt
wahren
nicht
auf
lager
und
Habe
Promt
am
Montag
00
.
00
.
00
meine
Versandbestätigung
bekommen
.

Ich
warte
seit
über
00h
auf
eine
Bestellung
.
